captures/0.234m.vcd
$timescale 1 ns $end
$scope module top $end
$var wire 1 ! TXD $end
$var wire 1 " RXD $end
$upscope $end
$enddefinitions $end
#2649172900
1!
1"
#2806248300
0"
#2806274400
1"
#2806283100
0"
#2806300600
1"
#2806309300
0"
#2806326700
1"
#2806336600
0"
#2806380200
1"
#2806397600
0"
#2806415000
1"
#2806424800
0"
#2806468400
1"
#2806485800
0"
#2806503300
1"
#2806513100
0"
#2806556600
1"
#2806574100
0"
#2806591500
1"
#2806601400
0"
#2806610100
1"
#2806627500
0"
#2806644900
1"
#2806662400
0"
#2806679800
1"
#2806689600
0"
#2806707000
1"
#2806715700
0"
#2806733200
1"
#2806750600
0"
#2806768000
1"
#2806777800
0"
#2806795300
1"
#2806812700
0"
#2806821400
1"
#2806838800
0"
#2806856300
1"
#2806866100
0"
#2806909700
1"
#2806927100
0"
#2806944600
1"
#2806954300
0"
#2806963100
1"
#2806971800
0"
#2806997900
1"
#2807015300
0"
#2807032800
1"
#2807042600
0"
#2807051300
1"
#2807068800
0"
#2807086200
1"
#2807103600
0"
#2807121100
1"
#2807130900
0"
#2807174500
1"
#2807191900
0"
#2807209400
1"
#2807219200
0"
#2807236600
1"
#2807254100
0"
#2807271500
1"
#2807280200
0"
#2807297700
1"
#3546656600
0!
#3546682700
1!
#3546691400
0!
#3546708800
1!
#3546717500
0!
#3546734900
1!
#3546744700
0!
#3546788200
1!
#3546805600
0!
#3546823000
1!
#3546832800
0!
#3546876300
1!
#3546893700
0!
#3546911100
1!
#3546920900
0!
#3546964400
1!
#3546981800
0!
#3546999200
1!
#3547009000
0!
#3547026400
1!
#3547035100
0!
#3547052500
1!
#3547069900
0!
#3547087300
1!
#3547097100
0!
#3547105800
1!
#3547123200
0!
#3547140600
1!
#3547158000
0!
#3547175400
1!
#3547185200
0!
#3547193900
1!
#3547211300
0!
#3547228700
1!
#3547246100
0!
#3547263500
1!
#3547273300
0!
#3547282000
1!
#3547299400
0!
#3547316800
1!
#3547334200
0!
#3547351600
1!
#3547361500
0!
#3547370200
1!
#3547378900
0!
#3547387600
1!
#3547396300
0!
#3547405000
1!
#3547422400
0!
#3547439800
1!
#3547449600
0!
#3547467000
1!
#3547484400
0!
#3547501800
1!
#3547510500
0!
#3547527900
1!
#3547537700
0!
#3547563800
1!
#3547572500
0!
#3547589900
1!
#3547598600
0!
#3547616000
1!
#3547625800
0!
#3547669300
1!
#3547686700
0!
#3547704100
1!
#3547713900
0!
#3547757400
1!
#3547774900
0!
#3547792300
1!
#3547802000
0!
#3547845600
1!
#3547863000
0!
#3547880400
1!
#3547890200
0!
#3547898900
1!
#3547916300
0!
#3547933700
1!
#3547951100
0!
#3547968500
1!
#3547978300
0!
#3547995700
1!
#3548004400
0!
#3548021800
1!
#3548039200
0!
#3548056600
1!
#3548066400
0!
#3548083800
1!
#3548101200
0!
#3548109900
1!
#3548127300
0!
#3548144700
1!
#3548154500
0!
#3548163200
1!
#3548171900
0!
#3548198000
1!
#3548215400
0!
#3548232800
1!
#3548242600
0!
#3548251300
1!
#3548260000
0!
#3548277400
1!
#3548303500
0!
#3548320900
1!
#3548330700
0!
#3548356800
1!
#3548365500
0!
#3548374200
1!
#3548391600
0!
#3548409000
1!
#3548418800
0!
#3548453600
1!
#3548479700
0!
#3548497100
1!
#3548506900
0!
#3548524300
1!
#3548541700
0!
#3548559100
1!
#3548567800
0!
#3548585200
1!
#3990954900
0"
#3990981100
1"
#3990989800
0"
#3991007200
1"
#3991016000
0"
#3991033400
1"
#3991043300
0"
#3991086900
1"
#3991104300
0"
#3991121700
1"
#3991131500
0"
#3991175100
1"
#3991192600
0"
#3991210000
1"
#3991219800
0"
#3991263400
1"
#3991280800
0"
#3991298200
1"
#3991308100
0"
#3991325500
1"
#3991334200
0"
#3991351700
1"
#3991369100
0"
#3991386500
1"
#3991396300
0"
#3991413800
1"
#3991422500
0"
#3991439900
1"
#3991457400
0"
#3991474800
1"
#3991484600
0"
#3991493300
1"
#3991502000
0"
#3991528200
1"
#3991545600
0"
#3991563000
1"
#3991572900
0"
#3991590300
1"
#3991599000
0"
#3991616500
1"
#3991633900
0"
#3991651300
1"
#3991661100
0"
#3991669800
1"
#3991687300
0"
#3991704700
1"
#3991722200
0"
#3991739600
1"
#3991749500
0"
#3991766900
1"
#3991784400
0"
#3991801800
1"
#3991810600
0"
#3991828000
1"
#3991853900
0!
#3991880000
1!
#3991888800
0!
#3991906200
1!
#3991914900
0!
#3991932300
1!
#3991942000
0!
#3991985500
1!
#3992003000
0!
#3992020400
1!
#3992030200
0!
#3992073700
1!
#3992091100
0!
#3992108500
1!
#3992118300
0!
#3992161800
1!
#3992179200
0!
#3992196600
1!
#3992206400
0!
#3992223800
1!
#3992232500
0!
#3992249900
1!
#3992267300
0!
#3992284700
1!
#3992294500
0!
#3992303200
1!
#3992320600
0!
#3992338000
1!
#3992355400
0!
#3992372800
1!
#3992382600
0!
#3992391300
1!
#3992408700
0!
#3992426100
1!
#3992443500
0!
#3992460900
1!
#3992470700
0!
#3992479400
1!
#3992496800
0!
#3992514200
1!
#3992531600
0!
#3992549000
1!
#3992558800
0!
#3992567500
1!
#3992576200
0!
#3992584900
1!
#3992593600
0!
#3992602300
1!
#3992619700
0!
#3992637100
1!
#3992646900
0!
#3992664300
1!
#3992681700
0!
#3992699100
1!
#3992707800
0!
#3992725200
1!
#4577392900
0!
#4577419000
1!
#4577427700
0!
#4577445100
1!
#4577453800
0!
#4577471200
1!
#4577481000
0!
#4577524500
1!
#4577542000
0!
#4577559400
1!
#4577569200
0!
#4577612700
1!
#4577630100
0!
#4577647500
1!
#4577657300
0!
#4577700800
1!
#4577718300
0!
#4577735700
1!
#4577745500
0!
#4577762900
1!
#4577780300
0!
#4577789000
1!
#4577806400
0!
#4577823800
1!
#4577833600
0!
#4577851000
1!
#4577859800
0!
#4577877200
1!
#4577894600
0!
#4577912000
1!
#4577921800
0!
#4577930500
1!
#4577939200
0!
#4577965300
1!
#4577982700
0!
#4578000100
1!
#4578009900
0!
#4578053500
1!
#4578070900
0!
#4578088300
1!
#4578098100
0!
#4578141600
1!
#4578159000
0!
#4578176400
1!
#4578186200
0!
#4578229700
1!
#4578247200
0!
#4578264600
1!
#4578274400
0!
#4578317900
1!
#4578335300
0!
#4578352700
1!
#4578362500
0!
#4578406000
1!
#4578423400
0!
#4578440900
1!
#4578450700
0!
#4578459400
1!
#4578468100
0!
#4578494200
1!
#4578511600
0!
#4578529000
1!
#4578538800
0!
#4578547500
1!
#4578556200
0!
#4578582400
1!
#4578599800
0!
#4578617200
1!
#4578627000
0!
#4578653100
1!
#4578661800
0!
#4578670500
1!
#4578687900
0!
#4578705300
1!
#4578715100
0!
#4578741300
1!
#4578750000
0!
#4578758700
1!
#4578776100
0!
#4578793500
1!
#4578803300
0!
#4578820700
1!
#4578829400
0!
#4578846800
1!
#4578864200
0!
#4578881600
1!
#4578891400
0!
#4578908800
1!
#4578926200
0!
#4578943600
1!
#4578952300
0!
#4578969700
1!
