captures/1.3m.vcd
$timescale 1 ns $end
$scope module top $end
$var wire 1 ! TXD $end
$var wire 1 " RXD $end
$upscope $end
$enddefinitions $end
#1529719200
1!
1"
#1688095000
0"
#1688121100
1"
#1688129800
0"
#1688147300
1"
#1688156000
0"
#1688173400
1"
#1688183200
0"
#1688226700
1"
#1688244200
0"
#1688261600
1"
#1688271400
0"
#1688315000
1"
#1688332400
0"
#1688349800
1"
#1688359700
0"
#1688403300
1"
#1688420700
0"
#1688438200
1"
#1688447900
0"
#1688456700
1"
#1688474100
0"
#1688491500
1"
#1688509000
0"
#1688526400
1"
#1688536200
0"
#1688553600
1"
#1688562300
0"
#1688579700
1"
#1688597200
0"
#1688614600
1"
#1688624500
0"
#1688641900
1"
#1688659300
0"
#1688668000
1"
#1688685500
0"
#1688702900
1"
#1688712700
0"
#1688756300
1"
#1688773700
0"
#1688791100
1"
#1688801000
0"
#1688809700
1"
#1688818400
0"
#1688844500
1"
#1688862000
0"
#1688879400
1"
#1688889200
0"
#1688897900
1"
#1688915300
0"
#1688932800
1"
#1688950200
0"
#1688967600
1"
#1688977400
0"
#1689021000
1"
#1689038500
0"
#1689055900
1"
#1689065800
0"
#1689083300
1"
#1689100700
0"
#1689118200
1"
#1689126900
0"
#1689144300
1"
#1873422400
0!
#1873448500
1!
#1873457200
0!
#1873474600
1!
#1873483300
0!
#1873500700
1!
#1873510500
0!
#1873553900
1!
#1873571300
0!
#1873588700
1!
#1873598500
0!
#1873642000
1!
#1873659400
0!
#1873676800
1!
#1873686600
0!
#1873730100
1!
#1873747500
0!
#1873764900
1!
#1873774700
0!
#1873792100
1!
#1873800800
0!
#1873818200
1!
#1873835500
0!
#1873852900
1!
#1873862700
0!
#1873871400
1!
#1873888800
0!
#1873906200
1!
#1873923600
0!
#1873941000
1!
#1873950800
0!
#1873959500
1!
#1873976900
0!
#1873994300
1!
#1874011700
0!
#1874029100
1!
#1874038900
0!
#1874047600
1!
#1874065000
0!
#1874082300
1!
#1874099700
0!
#1874117100
1!
#1874126900
0!
#1874135600
1!
#1874144300
0!
#1874153000
1!
#1874161700
0!
#1874170400
1!
#1874187800
0!
#1874205200
1!
#1874215000
0!
#1874232400
1!
#1874249800
0!
#1874267200
1!
#1874275900
0!
#1874293300
1!
#1874303000
0!
#1874329100
1!
#1874337800
0!
#1874355200
1!
#1874363900
0!
#1874381300
1!
#1874391100
0!
#1874434600
1!
#1874452000
0!
#1874469400
1!
#1874479200
0!
#1874522700
1!
#1874540100
0!
#1874557500
1!
#1874567300
0!
#1874610700
1!
#1874628100
0!
#1874645500
1!
#1874655300
0!
#1874664000
1!
#1874681400
0!
#1874698800
1!
#1874716200
0!
#1874733600
1!
#1874743400
0!
#1874760800
1!
#1874769500
0!
#1874786900
1!
#1874804300
0!
#1874821700
1!
#1874831500
0!
#1874848900
1!
#1874866300
0!
#1874875000
1!
#1874892300
0!
#1874909700
1!
#1874919500
0!
#1874945600
1!
#1874954300
0!
#1874963000
1!
#1874980400
0!
#1874997800
1!
#1875007600
0!
#1875051100
1!
#1875068500
0!
#1875085900
1!
#1875095700
0!
#1875113100
1!
#1875130500
0!
#1875139200
1!
#1875156600
0!
#1875173900
1!
#1875183800
0!
#1875192400
1!
#1875201100
0!
#1875218500
1!
#1875244600
0!
#1875262000
1!
#1875271800
0!
#1875289200
1!
#1875306600
0!
#1875324000
1!
#1875332700
0!
#1875350100
1!
#2571707000
0"
#2571733200
1"
#2571741900
0"
#2571759300
1"
#2571768100
0"
#2571785500
1"
#2571795300
0"
#2571839000
1"
#2571856400
0"
#2571873800
1"
#2571883600
0"
#2571927200
1"
#2571944700
0"
#2571962100
1"
#2571972000
0"
#2572015600
1"
#2572033000
0"
#2572050400
1"
#2572060200
0"
#2572077700
1"
#2572086400
0"
#2572103800
1"
#2572121300
0"
#2572138700
1"
#2572148500
0"
#2572165900
1"
#2572174700
0"
#2572192100
1"
#2572209500
0"
#2572227000
1"
#2572236800
0"
#2572245500
1"
#2572254300
0"
#2572280400
1"
#2572297800
0"
#2572315300
1"
#2572325100
0"
#2572342500
1"
#2572351200
0"
#2572368700
1"
#2572386100
0"
#2572403500
1"
#2572413300
0"
#2572422000
1"
#2572439500
0"
#2572456900
1"
#2572474400
0"
#2572491900
1"
#2572501700
0"
#2572519200
1"
#2572536600
0"
#2572554100
1"
#2572562800
0"
#2572580300
1"
#2572605500
0!
#2572631600
1!
#2572640300
0!
#2572657700
1!
#2572666400
0!
#2572683800
1!
#2572693600
0!
#2572737100
1!
#2572754500
0!
#2572771900
1!
#2572781700
0!
#2572825200
1!
#2572842600
0!
#2572860000
1!
#2572869700
0!
#2572913300
1!
#2572930700
0!
#2572948000
1!
#2572957800
0!
#2572975200
1!
#2572983900
0!
#2573001300
1!
#2573018700
0!
#2573036100
1!
#2573045900
0!
#2573054600
1!
#2573072000
0!
#2573089400
1!
#2573106800
0!
#2573124200
1!
#2573134000
0!
#2573142700
1!
#2573160100
0!
#2573177500
1!
#2573194900
0!
#2573212300
1!
#2573222100
0!
#2573230800
1!
#2573248200
0!
#2573265500
1!
#2573282900
0!
#2573300300
1!
#2573310100
0!
#2573318800
1!
#2573327500
0!
#2573336200
1!
#2573344900
0!
#2573353600
1!
#2573371000
0!
#2573388400
1!
#2573398200
0!
#2573415600
1!
#2573433000
0!
#2573450400
1!
#2573459100
0!
#2573476400
1!
#6780539100
0!
#6780565200
1!
#6780573900
0!
#6780591300
1!
#6780600000
0!
#6780617400
1!
#6780627200
0!
#6780670700
1!
#6780688100
0!
#6780705500
1!
#6780715300
0!
#6780758800
1!
#6780776200
0!
#6780793600
1!
#6780803400
0!
#6780846900
1!
#6780864300
0!
#6780881700
1!
#6780891500
0!
#6780908900
1!
#6780926300
0!
#6780935000
1!
#6780952400
0!
#6780969800
1!
#6780979600
0!
#6780997000
1!
#6781005700
0!
#6781023100
1!
#6781040500
0!
#6781057900
1!
#6781067700
0!
#6781076400
1!
#6781085100
0!
#6781111200
1!
#6781128600
0!
#6781146000
1!
#6781155800
0!
#6781199300
1!
#6781216700
0!
#6781234100
1!
#6781243900
0!
#6781287400
1!
#6781304800
0!
#6781322200
1!
#6781332000
0!
#6781375500
1!
#6781392900
0!
#6781410300
1!
#6781420100
0!
#6781463600
1!
#6781481000
0!
#6781498400
1!
#6781508200
0!
#6781516900
1!
#6781525600
0!
#6781551700
1!
#6781569100
0!
#6781586500
1!
#6781596300
0!
#6781605000
1!
#6781622400
0!
#6781639800
1!
#6781657200
0!
#6781674500
1!
#6781684300
0!
#6781727800
1!
#6781745200
0!
#6781762600
1!
#6781772400
0!
#6781815900
1!
#6781833300
0!
#6781850700
1!
#6781860500
0!
#6781886600
1!
#6781895300
0!
#6781904000
1!
#6781921400
0!
#6781938800
1!
#6781948600
0!
#6781992000
1!
#6782009400
0!
#6782026800
1!
#6782036600
0!
#6782054000
1!
#6782071400
0!
#6782088800
1!
#6782097500
0!
#6782114900
1!
