captures/1.919m.vcd
$timescale 1 ns $end
$scope module top $end
$var wire 1 ! TXD $end
$var wire 1 " RXD $end
$upscope $end
$enddefinitions $end
#26002678500
1!
1"
#26205602200
0"
#26205628300
1"
#26205637000
0"
#26205654500
1"
#26205663200
0"
#26205680600
1"
#26205690500
0"
#26205734100
1"
#26205751500
0"
#26205769000
1"
#26205778700
0"
#26205822300
1"
#26205839800
0"
#26205857200
1"
#26205867000
0"
#26205910500
1"
#26205928000
0"
#26205945400
1"
#26205955300
0"
#26205972700
1"
#26205981400
0"
#26205998800
1"
#26206016300
0"
#26206033700
1"
#26206043500
0"
#26206060900
1"
#26206069700
0"
#26206087100
1"
#26206104500
0"
#26206122000
1"
#26206131800
0"
#26206140500
1"
#26206149200
0"
#26206175300
1"
#26206192800
0"
#26206210200
1"
#26206220100
0"
#26206237500
1"
#26206246200
0"
#26206263700
1"
#26206281100
0"
#26206298500
1"
#26206308300
0"
#26206317000
1"
#26206334500
0"
#26206351900
1"
#26206369400
0"
#26206386900
1"
#26206396700
0"
#26206414200
1"
#26206431600
0"
#26206449100
1"
#26206457800
0"
#26206475200
1"
#26206499600
0!
#26206525700
1!
#26206534400
0!
#26206551800
1!
#26206560500
0!
#26206577900
1!
#26206587600
0!
#26206631100
1!
#26206648500
0!
#26206665900
1!
#26206675700
0!
#26206719100
1!
#26206736500
0!
#26206753900
1!
#26206763700
0!
#26206807200
1!
#26206824500
0!
#26206841900
1!
#26206851700
0!
#26206869100
1!
#26206877800
0!
#26206895200
1!
#26206912600
0!
#26206929900
1!
#26206939700
0!
#26206948400
1!
#26206965800
0!
#26206983200
1!
#26207000600
0!
#26207018000
1!
#26207027700
0!
#26207036400
1!
#26207053800
0!
#26207071200
1!
#26207088600
0!
#26207106000
1!
#26207115700
0!
#26207124400
1!
#26207141800
0!
#26207159200
1!
#26207176600
0!
#26207194000
1!
#26207203800
0!
#26207212500
1!
#26207221100
0!
#26207229800
1!
#26207238500
0!
#26207247200
1!
#26207264600
0!
#26207282000
1!
#26207291700
0!
#26207309100
1!
#26207326500
0!
#26207343900
1!
#26207352600
0!
#26207370000
1!
#30557886300
0!
#30557912300
1!
#30557921000
0!
#30557938400
1!
#30557947100
0!
#30557964500
1!
#30557974300
0!
#30558017800
1!
#30558035200
0!
#30558052600
1!
#30558062300
0!
#30558105800
1!
#30558123200
0!
#30558140600
1!
#30558150400
0!
#30558193800
1!
#30558211200
0!
#30558228600
1!
#30558238400
0!
#30558255800
1!
#30558273200
0!
#30558281900
1!
#30558299300
0!
#30558316700
1!
#30558326500
0!
#30558343900
1!
#30558352600
0!
#30558369900
1!
#30558387300
0!
#30558404700
1!
#30558414500
0!
#30558423200
1!
#30558431900
0!
#30558458000
1!
#30558475400
0!
#30558492700
1!
#30558502500
0!
#30558546000
1!
#30558563400
0!
#30558580800
1!
#30558590600
0!
#30558634000
1!
#30558651400
0!
#30558668800
1!
#30558678600
0!
#30558722100
1!
#30558739500
0!
#30558756900
1!
#30558766700
0!
#30558810100
1!
#30558827500
0!
#30558844900
1!
#30558854700
0!
#30558863400
1!
#30558872100
0!
#30558898100
1!
#30558915500
0!
#30558932900
1!
#30558942700
0!
#30558951400
1!
#30558960100
0!
#30558977500
1!
#30559003600
0!
#30559021000
1!
#30559030700
0!
#30559039400
1!
#30559048100
0!
#30559074200
1!
#30559091600
0!
#30559109000
1!
#30559118800
0!
#30559127500
1!
#30559136200
0!
#30559153500
1!
#30559179600
0!
#30559197000
1!
#30559206800
0!
#30559224200
1!
#30559241600
0!
#30559250300
1!
#30559267700
0!
#30559285100
1!
#30559294900
0!
#30559303500
1!
#30559312200
0!
#30559320900
1!
#30559329600
0!
#30559338300
1!
#30559355700
0!
#30559373100
1!
#30559382900
0!
#30559400300
1!
#30559417600
0!
#30559435000
1!
#30559443700
0!
#30559461100
1!
