captures/2.809m.vcd
$timescale 1 ns $end
$scope module top $end
$var wire 1 ! TXD $end
$var wire 1 " RXD $end
$upscope $end
$enddefinitions $end
#6885252400
1!
1"
#7083597200
0"
#7083623400
1"
#7083632100
0"
#7083649500
1"
#7083658200
0"
#7083675600
1"
#7083685400
0"
#7083729000
1"
#7083746400
0"
#7083763900
1"
#7083773700
0"
#7083817300
1"
#7083834700
0"
#7083852100
1"
#7083861900
0"
#7083905500
1"
#7083922900
0"
#7083940400
1"
#7083950200
0"
#7083967600
1"
#7083976300
0"
#7083993700
1"
#7084011200
0"
#7084028600
1"
#7084038500
0"
#7084055900
1"
#7084064600
0"
#7084082000
1"
#7084099500
0"
#7084116900
1"
#7084126700
0"
#7084135400
1"
#7084144100
0"
#7084170300
1"
#7084187700
0"
#7084205100
1"
#7084215000
0"
#7084232400
1"
#7084241100
0"
#7084258600
1"
#7084276000
0"
#7084293400
1"
#7084303200
0"
#7084311900
1"
#7084329400
0"
#7084346800
1"
#7084364300
0"
#7084381700
1"
#7084391500
0"
#7084409000
1"
#7084426400
0"
#7084443900
1"
#7084452600
0"
#7084470100
1"
#7084494000
0!
#7084520100
1!
#7084528800
0!
#7084546200
1!
#7084554900
0!
#7084572300
1!
#7084582100
0!
#7084625600
1!
#7084643000
0!
#7084660400
1!
#7084670200
0!
#7084713700
1!
#7084731100
0!
#7084748500
1!
#7084758300
0!
#7084801800
1!
#7084819200
0!
#7084836600
1!
#7084846400
0!
#7084863800
1!
#7084872500
0!
#7084889900
1!
#7084907300
0!
#7084924700
1!
#7084934500
0!
#7084943200
1!
#7084960600
0!
#7084978000
1!
#7084995500
0!
#7085012900
1!
#7085022700
0!
#7085031400
1!
#7085048800
0!
#7085066200
1!
#7085083600
0!
#7085101000
1!
#7085110800
0!
#7085119500
1!
#7085136900
0!
#7085154300
1!
#7085171700
0!
#7085189100
1!
#7085198900
0!
#7085207600
1!
#7085216300
0!
#7085225000
1!
#7085233700
0!
#7085242400
1!
#7085259800
0!
#7085277200
1!
#7085287000
0!
#7085304400
1!
#7085321800
0!
#7085339200
1!
#7085347900
0!
#7085365300
1!
#11435531500
0!
#11435557600
1!
#11435566400
0!
#11435583700
1!
#11435592500
0!
#11435609900
1!
#11435619600
0!
#11435663200
1!
#11435680600
0!
#11435698000
1!
#11435707800
0!
#11435751300
1!
#11435768700
0!
#11435786100
1!
#11435795900
0!
#11435839400
1!
#11435856800
0!
#11435874200
1!
#11435884000
0!
#11435901400
1!
#11435918800
0!
#11435927500
1!
#11435944900
0!
#11435962300
1!
#11435972100
0!
#11435989500
1!
#11435998200
0!
#11436015600
1!
#11436033000
0!
#11436050400
1!
#11436060200
0!
#11436068900
1!
#11436077600
0!
#11436103700
1!
#11436121200
0!
#11436138600
1!
#11436148400
0!
#11436191900
1!
#11436209300
0!
#11436226700
1!
#11436236500
0!
#11436280000
1!
#11436297400
0!
#11436314800
1!
#11436324600
0!
#11436368100
1!
#11436385500
0!
#11436402900
1!
#11436412700
0!
#11436456200
1!
#11436473600
0!
#11436491100
1!
#11436500800
0!
#11436518200
1!
#11436527000
0!
#11436544400
1!
#11436561800
0!
#11436579200
1!
#11436589000
0!
#11436606400
1!
#11436623800
0!
#11436632500
1!
#11436649900
0!
#11436667300
1!
#11436677100
0!
#11436711900
1!
#11436738000
0!
#11436755400
1!
#11436765200
0!
#11436773900
1!
#11436782600
0!
#11436800000
1!
#11436826200
0!
#11436843600
1!
#11436853400
0!
#11436879500
1!
#11436888200
0!
#11436896900
1!
#11436914300
0!
#11436931700
1!
#11436941500
0!
#11436958800
1!
#11436967500
0!
#11436984900
1!
#11437002300
0!
#11437019700
1!
#11437029500
0!
#11437046900
1!
#11437064300
0!
#11437081700
1!
#11437090400
0!
#11437107800
1!
