captures/err255.vcd
$timescale 1 ns $end
$scope module top $end
$var wire 1 ! TXD $end
$var wire 1 " RXD $end
$upscope $end
$enddefinitions $end
#680134000
1!
1"
#794764700
0"
#794790900
1"
#794799600
0"
#794817000
1"
#794825700
0"
#794843100
1"
#794852900
0"
#794896500
1"
#794913900
0"
#794931300
1"
#794941200
0"
#794984700
1"
#795002200
0"
#795019600
1"
#795029400
0"
#795072900
1"
#795090400
0"
#795107800
1"
#795117600
0"
#795126300
1"
#795143700
0"
#795161100
1"
#795178500
0"
#795195900
1"
#795205800
0"
#795223200
1"
#795231900
0"
#795249300
1"
#795266800
0"
#795284200
1"
#795294000
0"
#795311400
1"
#795328800
0"
#795337500
1"
#795354900
0"
#795372400
1"
#795382100
0"
#795425700
1"
#795443100
0"
#795460500
1"
#795470400
0"
#795479100
1"
#795487800
0"
#795513900
1"
#795531300
0"
#795548800
1"
#795558500
0"
#795567200
1"
#795584700
0"
#795602100
1"
#795619500
0"
#795636900
1"
#795646700
0"
#795690300
1"
#795707800
0"
#795725200
1"
#795735000
0"
#795752400
1"
#795769900
0"
#795787300
1"
#795796000
0"
#795813500
1"
#992783500
0!
#992809600
1!
#992818300
0!
#992835700
1!
#992844400
0!
#992861800
1!
#992871600
0!
#992915100
1!
#992932500
0!
#992949900
1!
#992959700
0!
#993003100
1!
#993020500
0!
#993037900
1!
#993047700
0!
#993091200
1!
#993108600
0!
#993126000
1!
#993135700
0!
#993153100
1!
#993161800
0!
#993179200
1!
#993196600
0!
#993214000
1!
#993223800
0!
#993232500
1!
#993249900
0!
#993267200
1!
#993284600
0!
#993302000
1!
#993311800
0!
#993320500
1!
#993337900
0!
#993355300
1!
#993372700
0!
#993390100
1!
#993399800
0!
#993408500
1!
#993425900
0!
#993443300
1!
#993460700
0!
#993478100
1!
#993487900
0!
#993496600
1!
#993505300
0!
#993513900
1!
#993522600
0!
#993531300
1!
#993548700
0!
#993566100
1!
#993575900
0!
#993593300
1!
#993610700
0!
#993628100
1!
#993636800
0!
#993654200
1!
#993664000
0!
#993690000
1!
#993698700
0!
#993716100
1!
#993724800
0!
#993742200
1!
#993752000
0!
#993795500
1!
#993812900
0!
#993830300
1!
#993840100
0!
#993883600
1!
#993901000
0!
#993918400
1!
#993928200
0!
#993971600
1!
#993989000
0!
#994006400
1!
#994016200
0!
#994024900
1!
#994042300
0!
#994059700
1!
#994077100
0!
#994094500
1!
#994104300
0!
#994121700
1!
#994130400
0!
#994147800
1!
#994165200
0!
#994182600
1!
#994192300
0!
#994209700
1!
#994227100
0!
#994235800
1!
#994253200
0!
#994270600
1!
#994280400
0!
#994289100
1!
#994297800
0!
#994315200
1!
#994341300
0!
#994358600
1!
#994368400
0!
#994385800
1!
#994403200
0!
#994411900
1!
#994429300
0!
#994446700
1!
#994456500
0!
#994473800
1!
#994482500
0!
#994499900
1!
#994517300
0!
#994534700
1!
#994544500
0!
#994553200
1!
#994561900
0!
#994570600
1!
#994579300
0!
#994588000
1!
#994605400
0!
#994622700
1!
#994632500
0!
#994649900
1!
#994667300
0!
#994684700
1!
#994693400
0!
#994710800
1!
#1095909100
0"
#1095935300
1"
#1095944000
0"
#1095961500
1"
#1095970200
0"
#1095987600
1"
#1095997500
0"
#1096041000
1"
#1096058500
0"
#1096075900
1"
#1096085700
0"
#1096129300
1"
#1096146700
0"
#1096164100
1"
#1096173900
0"
#1096217500
1"
#1096234900
0"
#1096252400
1"
#1096262200
0"
#1096279700
1"
#1096288400
0"
#1096305800
1"
#1096323200
0"
#1096340700
1"
#1096350400
0"
#1096367900
1"
#1096376600
0"
#1096394000
1"
#1096411500
0"
#1096428900
1"
#1096438800
0"
#1096447500
1"
#1096456200
0"
#1096482300
1"
#1096499800
0"
#1096517200
1"
#1096527000
0"
#1096544400
1"
#1096553200
0"
#1096570600
1"
#1096588000
0"
#1096605400
1"
#1096615200
0"
#1096623900
1"
#1096641400
0"
#1096658800
1"
#1096676300
0"
#1096693700
1"
#1096703600
0"
#1096721000
1"
#1096738500
0"
#1096755900
1"
#1096764700
0"
#1096782100
1"
#1096805900
0!
#1096832000
1!
#1096840700
0!
#1096858100
1!
#1096866800
0!
#1096884200
1!
#1096894000
0!
#1096937400
1!
#1096954800
0!
#1096972200
1!
#1096982000
0!
#1097025500
1!
#1097042900
0!
#1097060300
1!
#1097070000
0!
#1097113500
1!
#1097130900
0!
#1097148300
1!
#1097158100
0!
#1097175500
1!
#1097184200
0!
#1097201600
1!
#1097219000
0!
#1097236400
1!
#1097246100
0!
#1097254800
1!
#1097272200
0!
#1097289600
1!
#1097307000
0!
#1097324400
1!
#1097334200
0!
#1097342900
1!
#1097360300
0!
#1097377600
1!
#1097395000
0!
#1097412400
1!
#1097422200
0!
#1097430900
1!
#1097448300
0!
#1097465700
1!
#1097483100
0!
#1097500500
1!
#1097510300
0!
#1097519000
1!
#1097527700
0!
#1097536300
1!
#1097545000
0!
#1097553700
1!
#1097571100
0!
#1097588500
1!
#1097598300
0!
#1097615700
1!
#1097633100
0!
#1097650400
1!
#1097659100
0!
#1097676500
1!
#9538142600
0!
#9538168700
1!
#9538177400
0!
#9538194800
1!
#9538203500
0!
#9538220900
1!
#9538230700
0!
#9538274100
1!
#9538291500
0!
#9538308900
1!
#9538318700
0!
#9538362200
1!
#9538379600
0!
#9538397000
1!
#9538406800
0!
#9538450300
1!
#9538467700
0!
#9538485100
1!
#9538494900
0!
#9538512300
1!
#9538529700
0!
#9538538400
1!
#9538555800
0!
#9538573200
1!
#9538582900
0!
#9538600300
1!
#9538609000
0!
#9538626400
1!
#9538643800
0!
#9538661200
1!
#9538671000
0!
#9538679700
1!
#9538688400
0!
#9538714500
1!
#9538731900
0!
#9538749300
1!
#9538759100
0!
#9538802600
1!
#9538820000
0!
#9538837400
1!
#9538847100
0!
#9538890600
1!
#9538908100
0!
#9538925400
1!
#9538935200
0!
#9538978700
1!
#9538996100
0!
#9539013500
1!
#9539023300
0!
#9539066800
1!
#9539084200
0!
#9539101600
1!
#9539111400
0!
#9539154900
1!
#9539172300
0!
#9539189700
1!
#9539199500
0!
#9539243000
1!
#9539260400
0!
#9539277800
1!
#9539287500
0!
#9539296200
1!
#9539304900
0!
#9539331000
1!
#9539348400
0!
#9539365800
1!
#9539375600
0!
#9539393000
1!
#9539410400
0!
#9539419100
1!
#9539436500
0!
#9539453900
1!
#9539463700
0!
#9539489800
1!
#9539498500
0!
#9539507200
1!
#9539524600
0!
#9539542000
1!
#9539551800
0!
#9539560500
1!
#9539577800
0!
#9539595200
1!
#9539612600
0!
#9539630000
1!
#9539639800
0!
#9539657200
1!
#9539674600
0!
#9539692000
1!
#9539700700
0!
#9539718100
1!
