captures/err261.vcd
$timescale 1 ns $end
$scope module top $end
$var wire 1 ! TXD $end
$var wire 1 " RXD $end
$upscope $end
$enddefinitions $end
#875844800
1!
1"
#1109568800
0"
#1109595000
1"
#1109603700
0"
#1109621100
1"
#1109629800
0"
#1109647300
1"
#1109657100
0"
#1109700700
1"
#1109718100
0"
#1109735500
1"
#1109745300
0"
#1109788900
1"
#1109806300
0"
#1109823700
1"
#1109833500
0"
#1109877100
1"
#1109894500
0"
#1109911900
1"
#1109921800
0"
#1109930500
1"
#1109947900
0"
#1109965300
1"
#1109982800
0"
#1110000200
1"
#1110010000
0"
#1110027400
1"
#1110036100
0"
#1110053500
1"
#1110071000
0"
#1110088400
1"
#1110098200
0"
#1110115600
1"
#1110133000
0"
#1110141700
1"
#1110159200
0"
#1110176600
1"
#1110186500
0"
#1110230000
1"
#1110247500
0"
#1110264900
1"
#1110274700
0"
#1110283400
1"
#1110292100
0"
#1110318200
1"
#1110335700
0"
#1110353100
1"
#1110362900
0"
#1110371700
1"
#1110389100
0"
#1110406500
1"
#1110423900
0"
#1110441400
1"
#1110451100
0"
#1110494700
1"
#1110512200
0"
#1110529600
1"
#1110539400
0"
#1110556900
1"
#1110574300
0"
#1110591800
1"
#1110600500
0"
#1110617900
1"
#1295469600
0!
#1295495700
1!
#1295504400
0!
#1295521700
1!
#1295530400
0!
#1295547800
1!
#1295557600
0!
#1295601100
1!
#1295618500
0!
#1295635900
1!
#1295645700
0!
#1295689100
1!
#1295706500
0!
#1295723900
1!
#1295733700
0!
#1295777200
1!
#1295794600
0!
#1295811900
1!
#1295821700
0!
#1295839100
1!
#1295847800
0!
#1295865200
1!
#1295882600
0!
#1295900000
1!
#1295909700
0!
#1295918400
1!
#1295935800
0!
#1295953200
1!
#1295970600
0!
#1295988000
1!
#1295997800
0!
#1296006500
1!
#1296023900
0!
#1296041300
1!
#1296058700
0!
#1296076100
1!
#1296085800
0!
#1296094500
1!
#1296111900
0!
#1296129300
1!
#1296146700
0!
#1296164100
1!
#1296173900
0!
#1296182600
1!
#1296191300
0!
#1296200000
1!
#1296208700
0!
#1296217300
1!
#1296234700
0!
#1296252100
1!
#1296261900
0!
#1296279300
1!
#1296296700
0!
#1296314100
1!
#1296322800
0!
#1296340200
1!
#1296350000
0!
#1296376000
1!
#1296384700
0!
#1296402100
1!
#1296410800
0!
#1296428200
1!
#1296438000
0!
#1296481500
1!
#1296498900
0!
#1296516300
1!
#1296526000
0!
#1296569500
1!
#1296586900
0!
#1296604300
1!
#1296614100
0!
#1296657500
1!
#1296674900
0!
#1296692300
1!
#1296702100
0!
#1296710800
1!
#1296728200
0!
#1296745600
1!
#1296763000
0!
#1296780300
1!
#1296790100
0!
#1296807500
1!
#1296816200
0!
#1296833600
1!
#1296851000
0!
#1296868400
1!
#1296878200
0!
#1296895600
1!
#1296912900
0!
#1296921600
1!
#1296939000
0!
#1296956400
1!
#1296966200
0!
#1296974900
1!
#1296992300
0!
#1297009700
1!
#1297027100
0!
#1297044400
1!
#1297054200
0!
#1297097700
1!
#1297115100
0!
#1297132500
1!
#1297142300
0!
#1297150900
1!
#1297159600
0!
#1297168300
1!
#1297177000
0!
#1297185700
1!
#1297203100
0!
#1297220500
1!
#1297230300
0!
#1297239000
1!
#1297247700
0!
#1297265100
1!
#1297291100
0!
#1297308500
1!
#1297318300
0!
#1297335700
1!
#1297353100
0!
#1297370500
1!
#1297379200
0!
#1297396500
1!
#1531167000
0"
#1531193200
1"
#1531201900
0"
#1531219300
1"
#1531228000
0"
#1531245500
1"
#1531255300
0"
#1531298900
1"
#1531316300
0"
#1531333700
1"
#1531343600
0"
#1531387200
1"
#1531404600
0"
#1531422000
1"
#1531431800
0"
#1531475400
1"
#1531492800
0"
#1531510300
1"
#1531520100
0"
#1531537500
1"
#1531546200
0"
#1531563700
1"
#1531581100
0"
#1531598500
1"
#1531608400
0"
#1531625800
1"
#1531634600
0"
#1531652000
1"
#1531669400
0"
#1531686900
1"
#1531696600
0"
#1531705400
1"
#1531714100
0"
#1531740200
1"
#1531757700
0"
#1531775100
1"
#1531784900
0"
#1531802400
1"
#1531811100
0"
#1531828500
1"
#1531846000
0"
#1531863400
1"
#1531873200
0"
#1531881900
1"
#1531899300
0"
#1531916800
1"
#1531934300
0"
#1531951700
1"
#1531961500
0"
#1531979000
1"
#1531996400
0"
#1532013900
1"
#1532022600
0"
#1532040000
1"
#1532065700
0!
#1532091800
1!
#1532100500
0!
#1532117900
1!
#1532126600
0!
#1532144000
1!
#1532153800
0!
#1532197300
1!
#1532214700
0!
#1532232100
1!
#1532241800
0!
#1532285300
1!
#1532302700
0!
#1532320100
1!
#1532329900
0!
#1532373400
1!
#1532390700
0!
#1532408100
1!
#1532417900
0!
#1532435300
1!
#1532444000
0!
#1532461400
1!
#1532478800
0!
#1532496200
1!
#1532506000
0!
#1532514700
1!
#1532532100
0!
#1532549500
1!
#1532566900
0!
#1532584300
1!
#1532594000
0!
#1532602700
1!
#1532620100
0!
#1532637500
1!
#1532654900
0!
#1532672300
1!
#1532682100
0!
#1532690800
1!
#1532708200
0!
#1532725600
1!
#1532743000
0!
#1532760400
1!
#1532770100
0!
#1532778800
1!
#1532787500
0!
#1532796200
1!
#1532804900
0!
#1532813600
1!
#1532831000
0!
#1532848400
1!
#1532858200
0!
#1532875500
1!
#1532892900
0!
#1532910300
1!
#1532919000
0!
#1532936400
1!
#9972191300
0!
#9972217400
1!
#9972226100
0!
#9972243500
1!
#9972252200
0!
#9972269600
1!
#9972279300
0!
#9972322800
1!
#9972340200
0!
#9972357600
1!
#9972367400
0!
#9972410900
1!
#9972428300
0!
#9972445700
1!
#9972455500
0!
#9972498900
1!
#9972516300
0!
#9972533700
1!
#9972543500
0!
#9972560900
1!
#9972578300
0!
#9972587000
1!
#9972604400
0!
#9972621800
1!
#9972631600
0!
#9972649000
1!
#9972657700
0!
#9972675000
1!
#9972692400
0!
#9972709800
1!
#9972719600
0!
#9972728300
1!
#9972737000
0!
#9972763100
1!
#9972780500
0!
#9972797900
1!
#9972807700
0!
#9972851200
1!
#9972868600
0!
#9972886000
1!
#9972895700
0!
#9972939200
1!
#9972956600
0!
#9972974000
1!
#9972983800
0!
#9973027300
1!
#9973044700
0!
#9973062000
1!
#9973071800
0!
#9973115300
1!
#9973132700
0!
#9973150100
1!
#9973159900
0!
#9973203300
1!
#9973220700
0!
#9973238100
1!
#9973247900
0!
#9973291400
1!
#9973308800
0!
#9973326200
1!
#9973336000
0!
#9973344700
1!
#9973353400
0!
#9973379400
1!
#9973396800
0!
#9973414200
1!
#9973424000
0!
#9973432700
1!
#9973441400
0!
#9973450100
1!
#9973458800
0!
#9973467500
1!
#9973484900
0!
#9973502200
1!
#9973512000
0!
#9973538100
1!
#9973546800
0!
#9973555500
1!
#9973572900
0!
#9973590300
1!
#9973600100
0!
#9973617500
1!
#9973626200
0!
#9973643500
1!
#9973660900
0!
#9973678300
1!
#9973688100
0!
#9973705500
1!
#9973722900
0!
#9973740300
1!
#9973749000
0!
#9973766400
1!
