captures/err500.vcd
$timescale 1 ns $end
$scope module top $end
$var wire 1 ! TXD $end
$var wire 1 " RXD $end
$upscope $end
$enddefinitions $end
#1155695500
1!
1"
#1403736800
0"
#1403763000
1"
#1403771700
0"
#1403789100
1"
#1403797800
0"
#1403815200
1"
#1403825100
0"
#1403868700
1"
#1403886100
0"
#1403903500
1"
#1403913300
0"
#1403956900
1"
#1403974300
0"
#1403991700
1"
#1404001600
0"
#1404045100
1"
#1404062600
0"
#1404080000
1"
#1404089800
0"
#1404107200
1"
#1404115900
0"
#1404133400
1"
#1404150800
0"
#1404168200
1"
#1404178000
0"
#1404195400
1"
#1404204100
0"
#1404221600
1"
#1404239000
0"
#1404256400
1"
#1404266300
0"
#1404275000
1"
#1404283700
0"
#1404309800
1"
#1404327300
0"
#1404344700
1"
#1404354500
0"
#1404371900
1"
#1404380600
0"
#1404398100
1"
#1404415500
0"
#1404432900
1"
#1404442700
0"
#1404451400
1"
#1404468900
0"
#1404486300
1"
#1404503800
0"
#1404521200
1"
#1404531100
0"
#1404548500
1"
#1404566000
0"
#1404583400
1"
#1404592100
0"
#1404609600
1"
#1404635100
0!
#1404661200
1!
#1404669900
0!
#1404687200
1!
#1404695900
0!
#1404713300
1!
#1404723100
0!
#1404766600
1!
#1404784000
0!
#1404801300
1!
#1404811100
0!
#1404854600
1!
#1404872000
0!
#1404889400
1!
#1404899200
0!
#1404942600
1!
#1404960000
0!
#1404977400
1!
#1404987200
0!
#1405004600
1!
#1405013300
0!
#1405030600
1!
#1405048000
0!
#1405065400
1!
#1405075200
0!
#1405083900
1!
#1405101300
0!
#1405118700
1!
#1405136000
0!
#1405153400
1!
#1405163200
0!
#1405171900
1!
#1405189300
0!
#1405206700
1!
#1405224100
0!
#1405241500
1!
#1405251200
0!
#1405259900
1!
#1405277300
0!
#1405294700
1!
#1405312100
0!
#1405329500
1!
#1405339300
0!
#1405348000
1!
#1405356700
0!
#1405365400
1!
#1405374100
0!
#1405382800
1!
#1405400200
0!
#1405417500
1!
#1405427300
0!
#1405444700
1!
#1405462100
0!
#1405479500
1!
#1405488200
0!
#1405505500
1!
#2206822900
0"
#2206849000
1"
#2206857800
0"
#2206875200
1"
#2206883900
0"
#2206901300
1"
#2206911100
0"
#2206954700
1"
#2206972100
0"
#2206989500
1"
#2206999400
0"
#2207043000
1"
#2207060400
0"
#2207077800
1"
#2207087600
0"
#2207131200
1"
#2207148600
0"
#2207166000
1"
#2207175800
0"
#2207193300
1"
#2207202000
0"
#2207219400
1"
#2207236800
0"
#2207254300
1"
#2207264100
0"
#2207281500
1"
#2207290300
0"
#2207307700
1"
#2207325100
0"
#2207342500
1"
#2207352300
0"
#2207361000
1"
#2207369800
0"
#2207395900
1"
#2207413300
0"
#2207430700
1"
#2207440500
0"
#2207458000
1"
#2207466700
0"
#2207484100
1"
#2207501500
0"
#2207518900
1"
#2207528800
0"
#2207537500
1"
#2207554900
0"
#2207572400
1"
#2207589800
0"
#2207607300
1"
#2207617100
0"
#2207634500
1"
#2207651900
0"
#2207669400
1"
#2207678100
0"
#2207695600
1"
#7135199200
0"
#7135225300
1"
#7135234000
0"
#7135251500
1"
#7135260200
0"
#7135277600
1"
#7135287400
0"
#7135330900
1"
#7135348300
0"
#7135365700
1"
#7135375600
0"
#7135419100
1"
#7135436500
0"
#7135453900
1"
#7135463700
0"
#7135507300
1"
#7135524700
0"
#7135542100
1"
#7135551900
0"
#7135560600
1"
#7135578000
0"
#7135595400
1"
#7135612900
0"
#7135630300
1"
#7135640100
0"
#7135657500
1"
#7135666300
0"
#7135683700
1"
#7135701100
0"
#7135718500
1"
#7135728300
0"
#7135745700
1"
#7135763100
0"
#7135771800
1"
#7135789300
0"
#7135806700
1"
#7135816500
0"
#7135860100
1"
#7135877500
0"
#7135894900
1"
#7135904700
0"
#7135948200
1"
#7135965600
0"
#7135983100
1"
#7135992800
0"
#7136010300
1"
#7136019000
0"
#7136036400
1"
#7136053800
0"
#7136071200
1"
#7136081000
0"
#7136089800
1"
#7136098500
0"
#7136115900
1"
#7136142100
0"
#7136159500
1"
#7136169300
0"
#7136186700
1"
#7136204200
0"
#7136221600
1"
#7136230300
0"
#7136247700
1"
#9985472300
0!
#9985498400
1!
#9985507100
0!
#9985524500
1!
#9985533200
0!
#9985550600
1!
#9985560400
0!
#9985603900
1!
#9985621200
0!
#9985638600
1!
#9985648400
0!
#9985691900
1!
#9985709300
0!
#9985726600
1!
#9985736400
0!
#9985779900
1!
#9985797300
0!
#9985814700
1!
#9985824400
0!
#9985841800
1!
#9985859200
0!
#9985867900
1!
#9985885300
0!
#9985902700
1!
#9985912500
0!
#9985929900
1!
#9985938600
0!
#9985955900
1!
#9985973300
0!
#9985990700
1!
#9986000500
0!
#9986009200
1!
#9986017900
0!
#9986044000
1!
#9986061400
0!
#9986078700
1!
#9986088500
0!
#9986132000
1!
#9986149400
0!
#9986166800
1!
#9986176600
0!
#9986220000
1!
#9986237400
0!
#9986254800
1!
#9986264600
0!
#9986308100
1!
#9986325500
0!
#9986342800
1!
#9986352600
0!
#9986396100
1!
#9986413500
0!
#9986430900
1!
#9986440700
0!
#9986484100
1!
#9986501500
0!
#9986518900
1!
#9986528700
0!
#9986572100
1!
#9986589500
0!
#9986606900
1!
#9986616700
0!
#9986625400
1!
#9986634100
0!
#9986660100
1!
#9986677500
0!
#9986694900
1!
#9986704700
0!
#9986722100
1!
#9986739500
0!
#9986748100
1!
#9986765500
0!
#9986782900
1!
#9986792700
0!
#9986818800
1!
#9986827500
0!
#9986836200
1!
#9986853500
0!
#9986870900
1!
#9986880700
0!
#9986889400
1!
#9986906800
0!
#9986924200
1!
#9986941600
0!
#9986958900
1!
#9986968700
0!
#9986986100
1!
#9987003500
0!
#9987020900
1!
#9987029600
0!
#9987047000
1!
