captures/laseron.vcd
$timescale 1 ns $end
$scope module top $end
$var wire 1 ! TXD $end
$var wire 1 " RXD $end
$upscope $end
$enddefinitions $end
#5110299200
1!
1"
#5173332500
0"
#5173358600
1"
#5173367300
0"
#5173384800
1"
#5173393500
0"
#5173410900
1"
#5173420700
0"
#5173464300
1"
#5173481800
0"
#5173499200
1"
#5173509000
0"
#5173552600
1"
#5173570000
0"
#5173587400
1"
#5173597300
0"
#5173640900
1"
#5173658300
0"
#5173675700
1"
#5173685500
0"
#5173694200
1"
#5173711700
0"
#5173729100
1"
#5173746600
0"
#5173764000
1"
#5173773800
0"
#5173791200
1"
#5173799900
0"
#5173817400
1"
#5173834800
0"
#5173852200
1"
#5173862100
0"
#5173879500
1"
#5173897000
0"
#5173905700
1"
#5173923100
0"
#5173940500
1"
#5173950300
0"
#5173993900
1"
#5174011300
0"
#5174028800
1"
#5174038600
0"
#5174047300
1"
#5174056100
0"
#5174082200
1"
#5174099700
0"
#5174117100
1"
#5174126900
0"
#5174135600
1"
#5174153000
0"
#5174170500
1"
#5174187900
0"
#5174205300
1"
#5174215100
0"
#5174258700
1"
#5174276200
0"
#5174293600
1"
#5174303500
0"
#5174320900
1"
#5174338400
0"
#5174355800
1"
#5174364600
0"
#5174382000
1"
#6480170300
0!
#6480196400
1!
#6480205100
0!
#6480222500
1!
#6480231200
0!
#6480248600
1!
#6480258400
0!
#6480301900
1!
#6480319300
0!
#6480336700
1!
#6480346500
0!
#6480390000
1!
#6480407400
0!
#6480424800
1!
#6480434500
0!
#6480478100
1!
#6480495500
0!
#6480512900
1!
#6480522600
0!
#6480540000
1!
#6480548800
0!
#6480566200
1!
#6480583600
0!
#6480601000
1!
#6480610800
0!
#6480619400
1!
#6480636900
0!
#6480654300
1!
#6480671700
0!
#6480689100
1!
#6480698900
0!
#6480707600
1!
#6480725000
0!
#6480742400
1!
#6480759800
0!
#6480777200
1!
#6480787000
0!
#6480795700
1!
#6480813100
0!
#6480830500
1!
#6480847900
0!
#6480865300
1!
#6480875100
0!
#6480883800
1!
#6480892500
0!
#6480901200
1!
#6480909900
0!
#6480918600
1!
#6480936000
0!
#6480953400
1!
#6480963200
0!
#6480980600
1!
#6480998000
0!
#6481015400
1!
#6481024100
0!
#6481041500
1!
#6481051300
0!
#6481077400
1!
#6481086100
0!
#6481103500
1!
#6481112200
0!
#6481129600
1!
#6481139400
0!
#6481182900
1!
#6481200300
0!
#6481217700
1!
#6481227400
0!
#6481270900
1!
#6481288300
0!
#6481305700
1!
#6481315500
0!
#6481359000
1!
#6481376400
0!
#6481393800
1!
#6481403600
0!
#6481412300
1!
#6481429700
0!
#6481447100
1!
#6481464500
0!
#6481481900
1!
#6481491700
0!
#6481509100
1!
#6481517800
0!
#6481535200
1!
#6481552600
0!
#6481570000
1!
#6481579800
0!
#6481597200
1!
#6481614600
0!
#6481623300
1!
#6481640700
0!
#6481658100
1!
#6481667900
0!
#6481685300
1!
#6481694000
0!
#6481711400
1!
#6481728800
0!
#6481746200
1!
#6481756000
0!
#6481764700
1!
#6481790800
0!
#6481799500
1!
#6481816900
0!
#6481834300
1!
#6481844100
0!
#6481852800
1!
#6481861500
0!
#6481870200
1!
#6481878900
0!
#6481887600
1!
#6481905000
0!
#6481922400
1!
#6481932200
0!
#6481949600
1!
#6481967000
0!
#6481975600
1!
#6481993000
0!
#6482010400
1!
#6482020200
0!
#6482037600
1!
#6482055000
0!
#6482072400
1!
#6482081100
0!
#6482098500
1!
